<svg width="113" height="97" viewBox="0 0 113 97" fill="none" xmlns="http://www.w3.org/2000/svg">
<g opacity="0.26">
<mask id="mask0" mask-type="alpha" maskUnits="userSpaceOnUse" x="11" y="0" width="11" height="11">
<path d="M16.5094 10.4254C19.397 10.4254 21.7378 8.0917 21.7378 5.21293C21.7378 2.33417 19.397 0.000488281 16.5094 0.000488281C13.6218 0.000488281 11.281 2.33417 11.281 5.21293C11.281 8.0917 13.6218 10.4254 16.5094 10.4254Z" fill="url(#paint0_linear)"/>
</mask>
<g mask="url(#mask0)">
<path d="M16.5094 10.4254C19.397 10.4254 21.7378 8.0917 21.7378 5.21293C21.7378 2.33417 19.397 0.000488281 16.5094 0.000488281C13.6218 0.000488281 11.281 2.33417 11.281 5.21293C11.281 8.0917 13.6218 10.4254 16.5094 10.4254Z" fill="url(#paint1_linear)"/>
</g>
<mask id="mask1" mask-type="alpha" maskUnits="userSpaceOnUse" x="41" y="0" width="12" height="11">
<path d="M46.7904 10.4254C49.678 10.4254 52.0188 8.0917 52.0188 5.21293C52.0188 2.33417 49.678 0.000488281 46.7904 0.000488281C43.9028 0.000488281 41.562 2.33417 41.562 5.21293C41.562 8.0917 43.9028 10.4254 46.7904 10.4254Z" fill="url(#paint2_linear)"/>
</mask>
<g mask="url(#mask1)">
<path d="M46.7904 10.4254C49.678 10.4254 52.0188 8.0917 52.0188 5.21293C52.0188 2.33417 49.678 0.000488281 46.7904 0.000488281C43.9028 0.000488281 41.562 2.33417 41.562 5.21293C41.562 8.0917 43.9028 10.4254 46.7904 10.4254Z" fill="url(#paint3_linear)"/>
</g>
<mask id="mask2" mask-type="alpha" maskUnits="userSpaceOnUse" x="71" y="0" width="12" height="11">
<path d="M77.0717 10.4254C79.9592 10.4254 82.3 8.0917 82.3 5.21293C82.3 2.33417 79.9592 0.000488281 77.0717 0.000488281C74.1841 0.000488281 71.8433 2.33417 71.8433 5.21293C71.8433 8.0917 74.1841 10.4254 77.0717 10.4254Z" fill="url(#paint4_linear)"/>
</mask>
<g mask="url(#mask2)">
<path d="M77.0717 10.4254C79.9592 10.4254 82.3 8.0917 82.3 5.21293C82.3 2.33417 79.9592 0.000488281 77.0717 0.000488281C74.1841 0.000488281 71.8433 2.33417 71.8433 5.21293C71.8433 8.0917 74.1841 10.4254 77.0717 10.4254Z" fill="url(#paint5_linear)"/>
</g>
<mask id="mask3" mask-type="alpha" maskUnits="userSpaceOnUse" x="102" y="0" width="11" height="11">
<path d="M107.353 10.4254C110.24 10.4254 112.581 8.0917 112.581 5.21293C112.581 2.33417 110.24 0.000488281 107.353 0.000488281C104.465 0.000488281 102.124 2.33417 102.124 5.21293C102.124 8.0917 104.465 10.4254 107.353 10.4254Z" fill="url(#paint6_linear)"/>
</mask>
<g mask="url(#mask3)">
<path d="M107.353 10.4254C110.24 10.4254 112.581 8.0917 112.581 5.21293C112.581 2.33417 110.24 0.000488281 107.353 0.000488281C104.465 0.000488281 102.124 2.33417 102.124 5.21293C102.124 8.0917 104.465 10.4254 107.353 10.4254Z" fill="url(#paint7_linear)"/>
</g>
<mask id="mask4" mask-type="alpha" maskUnits="userSpaceOnUse" x="11" y="26" width="11" height="11">
<path d="M16.5094 36.5962C19.397 36.5962 21.7378 34.2626 21.7378 31.3838C21.7378 28.5051 19.397 26.1714 16.5094 26.1714C13.6218 26.1714 11.281 28.5051 11.281 31.3838C11.281 34.2626 13.6218 36.5962 16.5094 36.5962Z" fill="url(#paint8_linear)"/>
</mask>
<g mask="url(#mask4)">
<path d="M16.5094 36.5962C19.397 36.5962 21.7378 34.2626 21.7378 31.3838C21.7378 28.5051 19.397 26.1714 16.5094 26.1714C13.6218 26.1714 11.281 28.5051 11.281 31.3838C11.281 34.2626 13.6218 36.5962 16.5094 36.5962Z" fill="url(#paint9_linear)"/>
</g>
<mask id="mask5" mask-type="alpha" maskUnits="userSpaceOnUse" x="41" y="26" width="12" height="11">
<path d="M46.7904 36.5962C49.678 36.5962 52.0188 34.2626 52.0188 31.3838C52.0188 28.5051 49.678 26.1714 46.7904 26.1714C43.9028 26.1714 41.562 28.5051 41.562 31.3838C41.562 34.2626 43.9028 36.5962 46.7904 36.5962Z" fill="url(#paint10_linear)"/>
</mask>
<g mask="url(#mask5)">
<path d="M46.7904 36.5962C49.678 36.5962 52.0188 34.2626 52.0188 31.3838C52.0188 28.5051 49.678 26.1714 46.7904 26.1714C43.9028 26.1714 41.562 28.5051 41.562 31.3838C41.562 34.2626 43.9028 36.5962 46.7904 36.5962Z" fill="url(#paint11_linear)"/>
</g>
<mask id="mask6" mask-type="alpha" maskUnits="userSpaceOnUse" x="71" y="26" width="12" height="11">
<path d="M77.0717 36.5962C79.9592 36.5962 82.3 34.2626 82.3 31.3838C82.3 28.5051 79.9592 26.1714 77.0717 26.1714C74.1841 26.1714 71.8433 28.5051 71.8433 31.3838C71.8433 34.2626 74.1841 36.5962 77.0717 36.5962Z" fill="url(#paint12_linear)"/>
</mask>
<g mask="url(#mask6)">
<path d="M77.0717 36.5962C79.9592 36.5962 82.3 34.2626 82.3 31.3838C82.3 28.5051 79.9592 26.1714 77.0717 26.1714C74.1841 26.1714 71.8433 28.5051 71.8433 31.3838C71.8433 34.2626 74.1841 36.5962 77.0717 36.5962Z" fill="url(#paint13_linear)"/>
</g>
<mask id="mask7" mask-type="alpha" maskUnits="userSpaceOnUse" x="102" y="26" width="11" height="11">
<path d="M107.353 36.5962C110.24 36.5962 112.581 34.2626 112.581 31.3838C112.581 28.5051 110.24 26.1714 107.353 26.1714C104.465 26.1714 102.124 28.5051 102.124 31.3838C102.124 34.2626 104.465 36.5962 107.353 36.5962Z" fill="url(#paint14_linear)"/>
</mask>
<g mask="url(#mask7)">
<path d="M107.353 36.5962C110.24 36.5962 112.581 34.2626 112.581 31.3838C112.581 28.5051 110.24 26.1714 107.353 26.1714C104.465 26.1714 102.124 28.5051 102.124 31.3838C102.124 34.2626 104.465 36.5962 107.353 36.5962Z" fill="url(#paint15_linear)"/>
</g>
<mask id="mask8" mask-type="alpha" maskUnits="userSpaceOnUse" x="11" y="52" width="11" height="11">
<path d="M16.5094 62.713C19.397 62.713 21.7378 60.3793 21.7378 57.5006C21.7378 54.6218 19.397 52.2881 16.5094 52.2881C13.6218 52.2881 11.281 54.6218 11.281 57.5006C11.281 60.3793 13.6218 62.713 16.5094 62.713Z" fill="url(#paint16_linear)"/>
</mask>
<g mask="url(#mask8)">
<path d="M16.5094 62.713C19.397 62.713 21.7378 60.3793 21.7378 57.5006C21.7378 54.6218 19.397 52.2881 16.5094 52.2881C13.6218 52.2881 11.281 54.6218 11.281 57.5006C11.281 60.3793 13.6218 62.713 16.5094 62.713Z" fill="url(#paint17_linear)"/>
</g>
<mask id="mask9" mask-type="alpha" maskUnits="userSpaceOnUse" x="41" y="52" width="12" height="11">
<path d="M46.7904 62.713C49.678 62.713 52.0188 60.3793 52.0188 57.5006C52.0188 54.6218 49.678 52.2881 46.7904 52.2881C43.9028 52.2881 41.562 54.6218 41.562 57.5006C41.562 60.3793 43.9028 62.713 46.7904 62.713Z" fill="url(#paint18_linear)"/>
</mask>
<g mask="url(#mask9)">
<path d="M46.7904 62.713C49.678 62.713 52.0188 60.3793 52.0188 57.5006C52.0188 54.6218 49.678 52.2881 46.7904 52.2881C43.9028 52.2881 41.562 54.6218 41.562 57.5006C41.562 60.3793 43.9028 62.713 46.7904 62.713Z" fill="url(#paint19_linear)"/>
</g>
<mask id="mask10" mask-type="alpha" maskUnits="userSpaceOnUse" x="71" y="52" width="12" height="11">
<path d="M77.0717 62.713C79.9592 62.713 82.3 60.3793 82.3 57.5006C82.3 54.6218 79.9592 52.2881 77.0717 52.2881C74.1841 52.2881 71.8433 54.6218 71.8433 57.5006C71.8433 60.3793 74.1841 62.713 77.0717 62.713Z" fill="url(#paint20_linear)"/>
</mask>
<g mask="url(#mask10)">
<path d="M77.0717 62.713C79.9592 62.713 82.3 60.3793 82.3 57.5006C82.3 54.6218 79.9592 52.2881 77.0717 52.2881C74.1841 52.2881 71.8433 54.6218 71.8433 57.5006C71.8433 60.3793 74.1841 62.713 77.0717 62.713Z" fill="url(#paint21_linear)"/>
</g>
<mask id="mask11" mask-type="alpha" maskUnits="userSpaceOnUse" x="102" y="52" width="11" height="11">
<path d="M107.353 62.713C110.24 62.713 112.581 60.3793 112.581 57.5006C112.581 54.6218 110.24 52.2881 107.353 52.2881C104.465 52.2881 102.124 54.6218 102.124 57.5006C102.124 60.3793 104.465 62.713 107.353 62.713Z" fill="url(#paint22_linear)"/>
</mask>
<g mask="url(#mask11)">
<path d="M107.353 62.713C110.24 62.713 112.581 60.3793 112.581 57.5006C112.581 54.6218 110.24 52.2881 107.353 52.2881C104.465 52.2881 102.124 54.6218 102.124 57.5006C102.124 60.3793 104.465 62.713 107.353 62.713Z" fill="url(#paint23_linear)"/>
</g>
<mask id="mask12" mask-type="alpha" maskUnits="userSpaceOnUse" x="11" y="78" width="11" height="11">
<path d="M16.5094 88.8839C19.397 88.8839 21.7378 86.5502 21.7378 83.6714C21.7378 80.7927 19.397 78.459 16.5094 78.459C13.6218 78.459 11.281 80.7927 11.281 83.6714C11.281 86.5502 13.6218 88.8839 16.5094 88.8839Z" fill="url(#paint24_linear)"/>
</mask>
<g mask="url(#mask12)">
<path d="M16.5094 88.8839C19.397 88.8839 21.7378 86.5502 21.7378 83.6714C21.7378 80.7927 19.397 78.459 16.5094 78.459C13.6218 78.459 11.281 80.7927 11.281 83.6714C11.281 86.5502 13.6218 88.8839 16.5094 88.8839Z" fill="url(#paint25_linear)"/>
</g>
<mask id="mask13" mask-type="alpha" maskUnits="userSpaceOnUse" x="41" y="78" width="12" height="11">
<path d="M46.7904 88.8839C49.678 88.8839 52.0188 86.5502 52.0188 83.6714C52.0188 80.7927 49.678 78.459 46.7904 78.459C43.9028 78.459 41.562 80.7927 41.562 83.6714C41.562 86.5502 43.9028 88.8839 46.7904 88.8839Z" fill="url(#paint26_linear)"/>
</mask>
<g mask="url(#mask13)">
<path d="M46.7904 88.8839C49.678 88.8839 52.0188 86.5502 52.0188 83.6714C52.0188 80.7927 49.678 78.459 46.7904 78.459C43.9028 78.459 41.562 80.7927 41.562 83.6714C41.562 86.5502 43.9028 88.8839 46.7904 88.8839Z" fill="url(#paint27_linear)"/>
</g>
<mask id="mask14" mask-type="alpha" maskUnits="userSpaceOnUse" x="71" y="78" width="12" height="11">
<path d="M77.0717 88.8839C79.9592 88.8839 82.3 86.5502 82.3 83.6714C82.3 80.7927 79.9592 78.459 77.0717 78.459C74.1841 78.459 71.8433 80.7927 71.8433 83.6714C71.8433 86.5502 74.1841 88.8839 77.0717 88.8839Z" fill="url(#paint28_linear)"/>
</mask>
<g mask="url(#mask14)">
<path d="M77.0717 88.8839C79.9592 88.8839 82.3 86.5502 82.3 83.6714C82.3 80.7927 79.9592 78.459 77.0717 78.459C74.1841 78.459 71.8433 80.7927 71.8433 83.6714C71.8433 86.5502 74.1841 88.8839 77.0717 88.8839Z" fill="url(#paint29_linear)"/>
</g>
<mask id="mask15" mask-type="alpha" maskUnits="userSpaceOnUse" x="102" y="78" width="11" height="11">
<path d="M107.353 88.8839C110.24 88.8839 112.581 86.5502 112.581 83.6714C112.581 80.7927 110.24 78.459 107.353 78.459C104.465 78.459 102.124 80.7927 102.124 83.6714C102.124 86.5502 104.465 88.8839 107.353 88.8839Z" fill="url(#paint30_linear)"/>
</mask>
<g mask="url(#mask15)">
<path d="M107.353 88.8839C110.24 88.8839 112.581 86.5502 112.581 83.6714C112.581 80.7927 110.24 78.459 107.353 78.459C104.465 78.459 102.124 80.7927 102.124 83.6714C102.124 86.5502 104.465 88.8839 107.353 88.8839Z" fill="url(#paint31_linear)"/>
</g>
</g>
<defs>
<linearGradient id="paint0_linear" x1="66.2771" y1="131.134" x2="-5.12455" y2="-50.6696" gradientUnits="userSpaceOnUse">
<stop stop-color="white"/>
<stop offset="1" stop-color="white"/>
</linearGradient>
<linearGradient id="paint1_linear" x1="66.2771" y1="131.134" x2="-5.12455" y2="-50.6696" gradientUnits="userSpaceOnUse">
<stop stop-color="white"/>
<stop offset="1" stop-color="white"/>
</linearGradient>
<linearGradient id="paint2_linear" x1="96.5581" y1="131.134" x2="25.1565" y2="-50.6696" gradientUnits="userSpaceOnUse">
<stop stop-color="white"/>
<stop offset="1" stop-color="white"/>
</linearGradient>
<linearGradient id="paint3_linear" x1="96.5581" y1="131.134" x2="25.1565" y2="-50.6696" gradientUnits="userSpaceOnUse">
<stop stop-color="white"/>
<stop offset="1" stop-color="white"/>
</linearGradient>
<linearGradient id="paint4_linear" x1="126.839" y1="131.134" x2="55.4377" y2="-50.6696" gradientUnits="userSpaceOnUse">
<stop stop-color="white"/>
<stop offset="1" stop-color="white"/>
</linearGradient>
<linearGradient id="paint5_linear" x1="126.839" y1="131.134" x2="55.4377" y2="-50.6696" gradientUnits="userSpaceOnUse">
<stop stop-color="white"/>
<stop offset="1" stop-color="white"/>
</linearGradient>
<linearGradient id="paint6_linear" x1="157.12" y1="131.134" x2="85.7187" y2="-50.6696" gradientUnits="userSpaceOnUse">
<stop stop-color="white"/>
<stop offset="1" stop-color="white"/>
</linearGradient>
<linearGradient id="paint7_linear" x1="157.12" y1="131.134" x2="85.7187" y2="-50.6696" gradientUnits="userSpaceOnUse">
<stop stop-color="white"/>
<stop offset="1" stop-color="white"/>
</linearGradient>
<linearGradient id="paint8_linear" x1="66.2771" y1="157.304" x2="-5.12333" y2="-24.4986" gradientUnits="userSpaceOnUse">
<stop stop-color="white"/>
<stop offset="1" stop-color="white"/>
</linearGradient>
<linearGradient id="paint9_linear" x1="66.2771" y1="157.304" x2="-5.12333" y2="-24.4986" gradientUnits="userSpaceOnUse">
<stop stop-color="white"/>
<stop offset="1" stop-color="white"/>
</linearGradient>
<linearGradient id="paint10_linear" x1="96.5581" y1="157.304" x2="25.1577" y2="-24.4986" gradientUnits="userSpaceOnUse">
<stop stop-color="white"/>
<stop offset="1" stop-color="white"/>
</linearGradient>
<linearGradient id="paint11_linear" x1="96.5581" y1="157.304" x2="25.1577" y2="-24.4986" gradientUnits="userSpaceOnUse">
<stop stop-color="white"/>
<stop offset="1" stop-color="white"/>
</linearGradient>
<linearGradient id="paint12_linear" x1="126.839" y1="157.304" x2="55.4389" y2="-24.4986" gradientUnits="userSpaceOnUse">
<stop stop-color="white"/>
<stop offset="1" stop-color="white"/>
</linearGradient>
<linearGradient id="paint13_linear" x1="126.839" y1="157.304" x2="55.4389" y2="-24.4986" gradientUnits="userSpaceOnUse">
<stop stop-color="white"/>
<stop offset="1" stop-color="white"/>
</linearGradient>
<linearGradient id="paint14_linear" x1="157.12" y1="157.304" x2="85.7199" y2="-24.4986" gradientUnits="userSpaceOnUse">
<stop stop-color="white"/>
<stop offset="1" stop-color="white"/>
</linearGradient>
<linearGradient id="paint15_linear" x1="157.12" y1="157.304" x2="85.7199" y2="-24.4986" gradientUnits="userSpaceOnUse">
<stop stop-color="white"/>
<stop offset="1" stop-color="white"/>
</linearGradient>
<linearGradient id="paint16_linear" x1="66.2771" y1="183.422" x2="-5.12455" y2="1.61804" gradientUnits="userSpaceOnUse">
<stop stop-color="white"/>
<stop offset="1" stop-color="white"/>
</linearGradient>
<linearGradient id="paint17_linear" x1="66.2771" y1="183.422" x2="-5.12455" y2="1.61804" gradientUnits="userSpaceOnUse">
<stop stop-color="white"/>
<stop offset="1" stop-color="white"/>
</linearGradient>
<linearGradient id="paint18_linear" x1="96.5581" y1="183.422" x2="25.1565" y2="1.61804" gradientUnits="userSpaceOnUse">
<stop stop-color="white"/>
<stop offset="1" stop-color="white"/>
</linearGradient>
<linearGradient id="paint19_linear" x1="96.5581" y1="183.422" x2="25.1565" y2="1.61804" gradientUnits="userSpaceOnUse">
<stop stop-color="white"/>
<stop offset="1" stop-color="white"/>
</linearGradient>
<linearGradient id="paint20_linear" x1="126.839" y1="183.422" x2="55.4377" y2="1.61804" gradientUnits="userSpaceOnUse">
<stop stop-color="white"/>
<stop offset="1" stop-color="white"/>
</linearGradient>
<linearGradient id="paint21_linear" x1="126.839" y1="183.422" x2="55.4377" y2="1.61804" gradientUnits="userSpaceOnUse">
<stop stop-color="white"/>
<stop offset="1" stop-color="white"/>
</linearGradient>
<linearGradient id="paint22_linear" x1="157.12" y1="183.422" x2="85.7187" y2="1.61804" gradientUnits="userSpaceOnUse">
<stop stop-color="white"/>
<stop offset="1" stop-color="white"/>
</linearGradient>
<linearGradient id="paint23_linear" x1="157.12" y1="183.422" x2="85.7187" y2="1.61804" gradientUnits="userSpaceOnUse">
<stop stop-color="white"/>
<stop offset="1" stop-color="white"/>
</linearGradient>
<linearGradient id="paint24_linear" x1="66.2771" y1="209.593" x2="-5.12455" y2="27.7889" gradientUnits="userSpaceOnUse">
<stop stop-color="white"/>
<stop offset="1" stop-color="white"/>
</linearGradient>
<linearGradient id="paint25_linear" x1="66.2771" y1="209.593" x2="-5.12455" y2="27.7889" gradientUnits="userSpaceOnUse">
<stop stop-color="white"/>
<stop offset="1" stop-color="white"/>
</linearGradient>
<linearGradient id="paint26_linear" x1="96.5581" y1="209.593" x2="25.1565" y2="27.7889" gradientUnits="userSpaceOnUse">
<stop stop-color="white"/>
<stop offset="1" stop-color="white"/>
</linearGradient>
<linearGradient id="paint27_linear" x1="96.5581" y1="209.593" x2="25.1565" y2="27.7889" gradientUnits="userSpaceOnUse">
<stop stop-color="white"/>
<stop offset="1" stop-color="white"/>
</linearGradient>
<linearGradient id="paint28_linear" x1="126.839" y1="209.593" x2="55.4377" y2="27.7889" gradientUnits="userSpaceOnUse">
<stop stop-color="white"/>
<stop offset="1" stop-color="white"/>
</linearGradient>
<linearGradient id="paint29_linear" x1="126.839" y1="209.593" x2="55.4377" y2="27.7889" gradientUnits="userSpaceOnUse">
<stop stop-color="white"/>
<stop offset="1" stop-color="white"/>
</linearGradient>
<linearGradient id="paint30_linear" x1="157.12" y1="209.593" x2="85.7187" y2="27.7889" gradientUnits="userSpaceOnUse">
<stop stop-color="white"/>
<stop offset="1" stop-color="white"/>
</linearGradient>
<linearGradient id="paint31_linear" x1="157.12" y1="209.593" x2="85.7187" y2="27.7889" gradientUnits="userSpaceOnUse">
<stop stop-color="white"/>
<stop offset="1" stop-color="white"/>
</linearGradient>
</defs>
</svg>
